party,climate_change_bel,climate_skeptic,fracking_support,fracking_oppose,ACA_supp,ACA_opp,death_penalty_supp,death_penalty_opp,renewable_e_supp,fossil_fuel_supp,env_prot_supp,env_dereg,gay_mar_supp,gay_mar_opp,legal_pot_supp,legal_pot_opp,min_wage_inc_supp,min_wage_inc_opp,path2cit_supp,path2cit_opp,cops_fine,cops_excessive,aborition_supp,abortion_opp,liberty_over_security,security_over_liberty,ride_share_reg_supp,ride_share_reg_opp,school_choice_supp,school_choice_opp,union_supp,union_opp,gun_control_supp,gun_control_opp
DEM,71.3281805473544,28.671819452645654,43.67868154176153,56.32131845823862,29.398773111784212,70.60122688821579,61.13436797012386,38.86563202987612,55.8288802277168,44.171119772283284,66.45298324997142,33.547016750027865,46.11823915604557,53.881760843954495,64.15269898186646,35.84730101813353,74.40822696790998,25.591773032090106,57.98423146321536,42.01576853678464,40.282665036173235,59.71733496382674,59.513129181170065,40.48687081883109,50.47338450010809,49.52661549989191,52.01262911314654,47.98737083461683,47.07087986847115,52.92912013152872,58.935370238202296,41.064629761797704,49.6541617954051,39.038132991946384
REP,36.474085482751406,63.52591451724832,64.17073839714381,35.82926160285639,13.306468348788098,86.6935316512119,77.51791297003705,22.482087029963267,38.45826450135546,61.54173549864467,36.59657680780601,63.40342319219443,27.718316008286408,72.28168399171342,53.10114284879175,46.89885715120825,48.197327962072116,51.80267203792788,43.65653338302241,56.34346661697759,59.574659807381664,40.42534019261822,40.622400755199465,59.377599244799164,49.15227453617424,50.84772546382579,45.6288119779909,54.37118808795689,58.99604297045675,41.00395702954291,39.9392496218515,60.0607503781485,30.6369208116857,60.06046050713904
