party,climate_change_bel,climate_skeptic,fracking_support,fracking_oppose,ACA_supp,ACA_opp,death_penalty_supp,death_penalty_opp,renewable_e_supp,fossil_fuel_supp,env_prot_supp,env_dereg,gay_mar_supp,gay_mar_opp,legal_pot_supp,legal_pot_opp,min_wage_inc_supp,min_wage_inc_opp,path2cit_supp,path2cit_opp,cops_fine,cops_excessive,aborition_supp,abortion_opp,liberty_over_security,security_over_liberty,ride_share_reg_supp,ride_share_reg_opp,school_choice_supp,school_choice_opp,union_supp,union_opp,gun_control_supp,gun_control_opp
REP,45.3589783505602,54.641021649439786,60.909765537184526,39.09023446281544,12.955446711163157,87.04455328883684,67.18570386501315,32.8142961349868,44.47972275665553,55.52027724334443,44.13226367931697,55.86773632068289,58.8704880734119,41.129511926588066,64.26679222846204,35.733207771537955,53.17350258576942,46.82649741423059,49.2599546092297,50.7400453907703,61.72210135773507,38.277898642264944,55.998602671509325,44.0013973284904,51.28713865085728,48.71286134914271,40.70383422326312,59.2961656833812,55.52579837216799,44.474201627832045,37.95560985690306,62.04439014309694,49.57737821170516,42.67922828466755
DEM,78.12119628504328,21.87880371495688,36.42238405544414,63.57761594455596,27.099229001584035,72.90077099841596,50.34225144769326,49.65774855230677,65.78551328066764,34.21448671933212,74.9941178525947,25.005882147405188,79.44281931860908,20.557180681391003,79.04898202266128,20.951017977338726,79.59375349458374,20.40624650541627,64.57270326644657,35.42729673355344,44.26956812082976,55.730431879170176,74.08717195158329,25.91282804841585,54.08081531354544,45.919184686454656,48.6457733095176,51.35422651120128,43.95356699784966,56.046433002150145,65.04127961309003,34.958720386909974,69.16763037523565,20.88325050484632
