party,climate_change_bel,climate_skeptic,fracking_support,fracking_oppose,ACA_supp,ACA_opp,death_penalty_supp,death_penalty_opp,renewable_e_supp,fossil_fuel_supp,env_prot_supp,env_dereg,gay_mar_supp,gay_mar_opp,legal_pot_supp,legal_pot_opp,min_wage_inc_supp,min_wage_inc_opp,path2cit_supp,path2cit_opp,cops_fine,cops_excessive,aborition_supp,abortion_opp,liberty_over_security,security_over_liberty,ride_share_reg_supp,ride_share_reg_opp,school_choice_supp,school_choice_opp,union_supp,union_opp,gun_control_supp,gun_control_opp
REP,39.19509293582514,60.804907064174785,60.61342181785115,39.38657818214875,15.111625580180874,84.88837441981913,72.6867382812735,27.313261718726388,39.35899758796075,60.641002412038944,38.18110727882347,61.81889272117662,32.83545208513708,67.1645479148629,53.735467292684476,46.264532707315524,45.33861897978435,54.66138102021542,45.64142845289981,54.35857154710019,60.91302512979952,39.08697487020059,40.00928399791821,59.990716002086366,49.99789327966303,50.002106720336975,44.075186992332604,55.92481292874815,58.591965017374136,41.40803498262552,38.65819622925137,61.34180377074863,35.372745286564204,53.670991973444714
DEM,73.04446427446864,26.955535725531394,41.47640827329574,58.52359172670436,34.6424060792442,65.3575939207558,52.710481031925866,47.28951896807424,57.507464853477664,42.49253514652211,70.22567865362717,29.774321346373267,53.32432580581869,46.67567419418137,69.78690757365301,30.213092426346996,77.59016755254738,22.409832447452477,61.96750025672484,38.03249974327516,31.772698981856443,68.22730101814359,62.931421421893546,37.06857857810033,53.911060231592856,46.088939768407286,49.53653221275181,50.46346759967681,48.597206762834865,51.40279323716513,61.24492576598585,38.75507423401415,58.83152202699124,30.36773530442151
