party,climate_change_bel,climate_skeptic,fracking_support,fracking_oppose,ACA_supp,ACA_opp,death_penalty_supp,death_penalty_opp,renewable_e_supp,fossil_fuel_supp,env_prot_supp,env_dereg,gay_mar_supp,gay_mar_opp,legal_pot_supp,legal_pot_opp,min_wage_inc_supp,min_wage_inc_opp,path2cit_supp,path2cit_opp,cops_fine,cops_excessive,aborition_supp,abortion_opp,liberty_over_security,security_over_liberty,ride_share_reg_supp,ride_share_reg_opp,school_choice_supp,school_choice_opp,union_supp,union_opp,gun_control_supp,gun_control_opp
DEM,73.13103293206441,26.86896706793577,47.039737305554404,52.9602626944456,38.66692042213827,61.33307957786173,54.457144235448595,45.54285576455137,56.590606644565135,43.40939335543493,73.27784080380653,26.722159196193317,49.007856411555046,50.99214358844499,65.96743617284248,34.032563827157524,79.3397530539254,20.660246946074825,61.571616283809455,38.428383716190545,32.91398444085195,67.08601555914795,62.4408817862284,37.559118213771896,52.72857350946012,47.27142649053989,52.45277199086499,47.54722784138672,48.00222784926202,51.99777215073798,58.80168936976037,41.19831063023963,58.406479806387495,31.533217061919974
REP,36.163303624148696,63.83669637585149,65.55921419020711,34.44078580979294,15.169813507246786,84.83018649275321,74.78351013295432,25.216489867045713,38.66264938435318,61.33735061564667,39.391669599424034,60.60833040057642,32.279322041403866,67.72067795859617,56.013761990223415,43.986238009776585,43.53613040082788,56.46386959917206,45.65168067184551,54.34831932815449,60.94102304097954,39.05897695902038,41.50110562244648,58.4988943775573,51.22744951081807,48.77255048918195,44.61516200281959,55.38483797858871,58.48683117049955,41.51316882950015,37.9374810428761,62.0625189571239,35.81291472644807,56.35145411665603
