party,climate_change_bel,climate_skeptic,fracking_support,fracking_oppose,ACA_supp,ACA_opp,death_penalty_supp,death_penalty_opp,renewable_e_supp,fossil_fuel_supp,env_prot_supp,env_dereg,gay_mar_supp,gay_mar_opp,legal_pot_supp,legal_pot_opp,min_wage_inc_supp,min_wage_inc_opp,path2cit_supp,path2cit_opp,cops_fine,cops_excessive,aborition_supp,abortion_opp,liberty_over_security,security_over_liberty,ride_share_reg_supp,ride_share_reg_opp,school_choice_supp,school_choice_opp,union_supp,union_opp,gun_control_supp,gun_control_opp
DEM,71.31422802691357,28.685771973086506,42.12855859063107,57.87144140936886,34.203912432532526,65.79608756746747,55.726701713033805,44.27329828696621,53.005329468988045,46.994670531011955,70.27140665483878,29.728593345161183,40.663352719463326,59.336647280536674,61.23178990997075,38.76821009002925,75.19992783819511,24.80007216180484,61.26556994014389,38.73443005985611,30.47493034565674,69.52506965434326,58.75100345363927,41.24899654635945,51.165462710435904,48.834537289564096,53.783283679952085,46.21671598706769,51.35131985695005,48.64868014304993,60.215388029868144,39.784611970131856,57.41693671809898,27.364792723316686
REP,36.673947112724186,63.32605288727578,58.28258831137179,41.71741168862819,14.33883681844069,85.6611631815593,75.33808695685153,24.66191304314837,34.31443887532009,65.68556112467994,37.85047861974755,62.14952138025231,24.17421246325635,75.82578753674386,49.14498900649028,50.85501099350972,44.00619032612919,55.99380967387075,44.071014313145845,55.928985686854155,60.44016094038717,39.55983905961278,38.46893013802374,61.531069861974196,47.30877407954592,52.691225920454066,48.628865934740766,51.371134308662086,58.386326434691256,41.613673565308765,36.02049290469553,63.97950709530447,34.25611744605243,50.83553958833172
