party,climate_change_bel,climate_skeptic,fracking_support,fracking_oppose,ACA_supp,ACA_opp,death_penalty_supp,death_penalty_opp,renewable_e_supp,fossil_fuel_supp,env_prot_supp,env_dereg,gay_mar_supp,gay_mar_opp,legal_pot_supp,legal_pot_opp,min_wage_inc_supp,min_wage_inc_opp,path2cit_supp,path2cit_opp,cops_fine,cops_excessive,aborition_supp,abortion_opp,liberty_over_security,security_over_liberty,ride_share_reg_supp,ride_share_reg_opp,school_choice_supp,school_choice_opp,union_supp,union_opp,gun_control_supp,gun_control_opp
DEM,74.73747423958001,25.26252576041999,31.74229054968117,68.25770945031874,33.10146729363106,66.89853270636894,46.148118501809535,53.85188149819049,63.42002597214363,36.579974027856345,70.19629085803444,29.80370914196563,69.27806575986601,30.7219342401339,70.9770735370147,29.022926462985303,73.88661009749131,26.113389902508658,63.055694379477586,36.944305620522414,46.25401102316644,53.74598897683356,67.31795097306764,32.682049026933,55.55812006881016,44.44187993118986,51.26228615241634,48.73771407592508,41.93693399732885,58.063066002671164,62.64666166079913,37.35333833920087,58.397646421625346,24.450343252849642
REP,39.14063460825601,60.859365391744,59.42074293305885,40.57925706694119,15.592835151881753,84.40716484811824,70.57889957638291,29.42110042361709,38.76406599740975,61.23593400259013,37.421241428394126,62.578758571605654,34.47966860561153,65.52033139438844,59.69160675926141,40.30839324073859,44.762298878432524,55.23770112156743,43.71158364934974,56.28841635065026,63.27655928041316,36.723440719586755,40.02813945338887,59.9718605466103,48.588767496839814,51.41123250316015,45.903705955067416,54.0962941133704,60.43976604587859,39.56023395412135,36.9513528604332,63.0486471395668,34.36636965001667,51.111748085871184
