party,climate_change_bel,climate_skeptic,fracking_support,fracking_oppose,ACA_supp,ACA_opp,death_penalty_supp,death_penalty_opp,renewable_e_supp,fossil_fuel_supp,env_prot_supp,env_dereg,gay_mar_supp,gay_mar_opp,legal_pot_supp,legal_pot_opp,min_wage_inc_supp,min_wage_inc_opp,path2cit_supp,path2cit_opp,cops_fine,cops_excessive,aborition_supp,abortion_opp,liberty_over_security,security_over_liberty,ride_share_reg_supp,ride_share_reg_opp,school_choice_supp,school_choice_opp,union_supp,union_opp,gun_control_supp,gun_control_opp
DEM,77.15200746161729,22.847992538382965,34.791269974344786,65.20873002565479,32.658137818950955,67.34186218104905,49.805546121024776,50.19445387897521,65.82768361277138,34.17231638722888,74.98068145335371,25.01931854664595,74.13611677420033,25.863883225799984,74.06297273828507,25.937027261714924,77.96796464585934,22.032035354140664,65.43093001674426,34.56906998325574,42.46565682251245,57.53434317748753,69.8727033829222,30.12729661707237,53.968753021218674,46.03124697878145,48.73499630932774,51.265003533482854,45.634293771049514,54.365706228950295,63.5232769834828,36.4767230165172,64.75820891960927,22.891318166162268
REP,44.77869331618761,55.2213066838123,57.71548227152262,42.28451772847742,16.93945255790253,83.06054744209747,68.25488921181423,31.745110788185883,45.66133191752163,54.33866808247832,45.108658265856455,54.89134173414361,51.678195747565326,48.32180425243469,60.94624094246442,39.05375905753558,51.84880783372271,48.15119216627728,51.70345251944506,48.29654748055494,60.69908692977984,39.30091307022017,50.95536214288046,49.04463785711947,50.43487499065802,49.56512500934198,41.90331522614601,58.09668472520518,56.89203385513716,43.10796614486296,38.98662705547169,61.01337294452831,44.488963026346575,44.26970575990362
