party,climate_change_bel,climate_skeptic,fracking_support,fracking_oppose,ACA_supp,ACA_opp,death_penalty_supp,death_penalty_opp,renewable_e_supp,fossil_fuel_supp,env_prot_supp,env_dereg,gay_mar_supp,gay_mar_opp,legal_pot_supp,legal_pot_opp,min_wage_inc_supp,min_wage_inc_opp,path2cit_supp,path2cit_opp,cops_fine,cops_excessive,aborition_supp,abortion_opp,liberty_over_security,security_over_liberty,ride_share_reg_supp,ride_share_reg_opp,school_choice_supp,school_choice_opp,union_supp,union_opp,gun_control_supp,gun_control_opp
DEM,79.5485121099188,20.451487890081044,33.95692083393883,66.04307916606113,30.806367116292673,69.19363288370732,52.711570625527784,47.28842937447227,65.44861127213547,34.55138872786429,77.07946272457583,22.920537275424472,68.38182738178236,31.618172618217702,79.2393858401838,20.7606141598162,78.35723373629833,21.642766263701674,66.97695888984745,33.02304111015255,40.297374237036806,59.7026257629632,70.83228839325953,29.167711606735352,52.63794789685027,47.362052103149715,48.508472413025586,51.491527772300294,47.16985692336991,52.83014307663006,66.5584553663566,33.4415446336434,64.4675711918063,23.731782364886868
REP,37.90077032840805,62.09922967159203,64.96976082340323,35.03023917659674,12.39352478551001,87.60647521448999,73.87560018291228,26.1243998170877,37.43485418338896,62.56514581661104,36.83310740467125,63.1668925953292,34.76073031863678,65.23926968136323,61.56863679694948,38.43136320305052,45.83670316622979,54.16329683377026,47.51471639656816,52.48528360343184,61.53711847020965,38.46288152979029,43.52122403562449,56.47877596437386,48.427106071973405,51.57289392802664,41.14227299404193,58.857727017874154,62.9496349845088,37.05036501549103,33.934897521449,66.065102478551,36.236846997140134,50.26381767028125
