party,climate_change_bel,climate_skeptic,fracking_support,fracking_oppose,ACA_supp,ACA_opp,death_penalty_supp,death_penalty_opp,renewable_e_supp,fossil_fuel_supp,env_prot_supp,env_dereg,gay_mar_supp,gay_mar_opp,legal_pot_supp,legal_pot_opp,min_wage_inc_supp,min_wage_inc_opp,path2cit_supp,path2cit_opp,cops_fine,cops_excessive,aborition_supp,abortion_opp,liberty_over_security,security_over_liberty,ride_share_reg_supp,ride_share_reg_opp,school_choice_supp,school_choice_opp,union_supp,union_opp,gun_control_supp,gun_control_opp
DEM,81.70147052090581,18.298529479094462,38.10584451690147,61.894155483098565,31.09449812082657,68.90550187917343,50.32211845918502,49.67788154081501,61.94011525852191,38.059884741478115,78.66774196937095,21.33225803062597,58.889830439525014,41.110169560475185,72.35059767241803,27.64940232758197,77.93793109685637,22.0620689031436,74.05521195793871,25.944788042061283,34.15597653835645,65.84402346164345,64.33730437562255,35.66269562434646,53.353666447819045,46.64633355218095,52.374355784134416,47.62564421004054,48.1074199396775,51.89258006032232,66.30934788909792,33.69065211090208,65.07611173218709,24.8256036363386
REP,36.353529874646746,63.64647012535342,63.33297956436664,36.667020435633404,12.130890222170382,87.86910977782962,74.50762298910499,25.492377010894867,36.58111253042086,63.41888746957965,37.2227193923426,62.77728060765639,30.47758259824407,69.52241740175639,56.90963819475155,43.09036180524845,40.05141721053775,59.94858278946246,42.47754749945267,57.52245250054733,62.53156138881796,37.46843861118199,40.63653363500646,59.3634663649801,48.0337040101987,51.9662959898014,43.881926124257376,56.11807379812844,62.23468529777668,37.7653147022262,33.484662723374726,66.51533727662527,33.60406280076022,54.89403694038735
